<svg xmlns="http://www.w3.org/2000/svg" width="11" height="18" viewBox="0 0 11 18">
  <metadata><?xpacket begin="﻿" id="W5M0MpCehiHzreSzNTczkc9d"?>
<x:xmpmeta xmlns:x="adobe:ns:meta/" x:xmptk="Adobe XMP Core 5.6-c138 79.159824, 2016/09/14-01:09:01        ">
   <rdf:RDF xmlns:rdf="http://www.w3.org/1999/02/22-rdf-syntax-ns#">
      <rdf:Description rdf:about=""/>
   </rdf:RDF>
</x:xmpmeta>
                                                                                                    
                                                                                                    
                                                                                                    
                                                                                                    
                                                                                                    
                                                                                                    
                                                                                                    
                                                                                                    
                                                                                                    
                                                                                                    
                                                                                                    
                                                                                                    
                                                                                                    
                                                                                                    
                                                                                                    
                                                                                                    
                                                                                                    
                                                                                                    
                                                                                                    
                                                                                                    
                           
<?xpacket end="w"?></metadata>
<defs>
    <style>
      .cls-1 {
        fill: #ebebeb;
        fill-rule: evenodd;
      }
    </style>
  </defs>
  <path id="icon" class="cls-1" d="M29.314,26.9a5.583,5.583,0,0,1-2.008,1.275,9.522,9.522,0,0,1-2.279.5c0.117,0.125.172,0.187,0.246,0.26,1.055,1.042,2.115,2.081,3.166,3.126a1.018,1.018,0,0,1,.236,1.213A1.252,1.252,0,0,1,27.5,34a1.147,1.147,0,0,1-.742-0.373c-0.8-.788-1.608-1.561-2.388-2.365-0.227-.233-0.336-0.189-0.537.013-0.8.812-1.615,1.61-2.434,2.4a1.033,1.033,0,0,1-1.232.216,1.223,1.223,0,0,1-.719-1.128,1.123,1.123,0,0,1,.386-0.758q1.566-1.537,3.127-3.081c0.069-.068.133-0.14,0.234-0.245a7.2,7.2,0,0,1-3.8-1.334c-0.136-.1-0.276-0.207-0.4-0.324a1.048,1.048,0,0,1-.149-1.508,1.1,1.1,0,0,1,1.437-.317,2.12,2.12,0,0,1,.314.183,6.315,6.315,0,0,0,6.9.062,1.87,1.87,0,0,1,.672-0.341,1.062,1.062,0,0,1,1.209.474A0.994,0.994,0,0,1,29.314,26.9ZM24.064,25.11a4.561,4.561,0,1,1,4.665-4.5A4.6,4.6,0,0,1,24.064,25.11ZM24.1,18.319a2.232,2.232,0,1,0,2.266,2.227A2.243,2.243,0,0,0,24.1,18.319Z" transform="translate(-18.594 -16)"/>
</svg>
